\relax 
\providecommand\hyper@newdestlabel[2]{}
\providecommand\HyperFirstAtBeginDocument{\AtBeginDocument}
\HyperFirstAtBeginDocument{\ifx\hyper@anchor\@undefined
\global\let\oldcontentsline\contentsline
\gdef\contentsline#1#2#3#4{\oldcontentsline{#1}{#2}{#3}}
\global\let\oldnewlabel\newlabel
\gdef\newlabel#1#2{\newlabelxx{#1}#2}
\gdef\newlabelxx#1#2#3#4#5#6{\oldnewlabel{#1}{{#2}{#3}}}
\AtEndDocument{\ifx\hyper@anchor\@undefined
\let\contentsline\oldcontentsline
\let\newlabel\oldnewlabel
\fi}
\fi}
\global\let\hyper@last\relax 
\gdef\HyperFirstAtBeginDocument#1{#1}
\providecommand\HyField@AuxAddToFields[1]{}
\providecommand\HyField@AuxAddToCoFields[2]{}
\@writefile{toc}{\contentsline {chapter}{\numberline {1}R\discretionary {-}{}{}E\discretionary {-}{}{}A\discretionary {-}{}{}D\discretionary {-}{}{}M\discretionary {-}{}{}E}{1}{chapter.1}}
\@writefile{lof}{\addvspace {10\p@ }}
\@writefile{lot}{\addvspace {10\p@ }}
\newlabel{md_README}{{1}{1}{R\-E\-A\-D\-M\-E}{chapter.1}{}}
\@writefile{toc}{\contentsline {chapter}{\numberline {2}Hierarchical Index}{3}{chapter.2}}
\@writefile{lof}{\addvspace {10\p@ }}
\@writefile{lot}{\addvspace {10\p@ }}
\@writefile{toc}{\contentsline {section}{\numberline {2.1}Class Hierarchy}{3}{section.2.1}}
\@writefile{toc}{\contentsline {chapter}{\numberline {3}Class Index}{5}{chapter.3}}
\@writefile{lof}{\addvspace {10\p@ }}
\@writefile{lot}{\addvspace {10\p@ }}
\@writefile{toc}{\contentsline {section}{\numberline {3.1}Class List}{5}{section.3.1}}
\@writefile{toc}{\contentsline {chapter}{\numberline {4}Class Documentation}{7}{chapter.4}}
\@writefile{lof}{\addvspace {10\p@ }}
\@writefile{lot}{\addvspace {10\p@ }}
\@writefile{toc}{\contentsline {section}{\numberline {4.1}Address\discretionary {-}{}{}Message Class Reference}{7}{section.4.1}}
\newlabel{classAddressMessage}{{4.1}{7}{Address\-Message Class Reference}{section.4.1}{}}
\newlabel{classAddressMessage_a97dff78ffe331d5607713e29749bf4b2}{{4.1}{7}{Public Member Functions}{section*.2}{}}
\newlabel{classAddressMessage_a83cad69fe49e9690a439d7d1a77c30ff}{{4.1}{7}{Public Attributes}{section*.3}{}}
\@writefile{toc}{\contentsline {subsection}{\numberline {4.1.1}Member Function Documentation}{7}{subsection.4.1.1}}
\@writefile{toc}{\contentsline {subsubsection}{\numberline {4.1.1.1}load\discretionary {-}{}{}From}{7}{subsubsection.4.1.1.1}}
\newlabel{classAddressMessage_aac577ca931898b767422916748403096}{{4.1.1.1}{7}{load\-From}{subsubsection.4.1.1.1}{}}
\gdef \PWST@i{1}
\gdef \PWST@ii{1}
\@writefile{toc}{\contentsline {subsubsection}{\numberline {4.1.1.2}load\discretionary {-}{}{}To}{8}{subsubsection.4.1.1.2}}
\newlabel{classAddressMessage_a2e91d0364b9b1100159661f181ec84a4}{{4.1.1.2}{8}{load\-To}{subsubsection.4.1.1.2}{}}
\@writefile{toc}{\contentsline {section}{\numberline {4.2}A\discretionary {-}{}{}I Class Reference}{8}{section.4.2}}
\newlabel{classAI}{{4.2}{8}{A\-I Class Reference}{section.4.2}{}}
\newlabel{classAI_a1251dbccca1366b2221d4152821b8ce9}{{4.2}{8}{Public Member Functions}{section*.4}{}}
\newlabel{classAI_ab45e1f1e1b07188ab4823ef1686c388f}{{4.2}{8}{Public Attributes}{section*.5}{}}
\@writefile{toc}{\contentsline {subsection}{\numberline {4.2.1}Member Function Documentation}{8}{subsection.4.2.1}}
\@writefile{toc}{\contentsline {subsubsection}{\numberline {4.2.1.1}decide\discretionary {-}{}{}Action}{8}{subsubsection.4.2.1.1}}
\newlabel{classAI_a07b5ef7f3e7601923c2553bec13d374e}{{4.2.1.1}{8}{decide\-Action}{subsubsection.4.2.1.1}{}}
\@writefile{toc}{\contentsline {subsubsection}{\numberline {4.2.1.2}dodge}{8}{subsubsection.4.2.1.2}}
\newlabel{classAI_abec9bdaa46bdfbcd35294abfdd3af143}{{4.2.1.2}{8}{dodge}{subsubsection.4.2.1.2}{}}
\gdef \PWST@iii{1}
\gdef \PWST@iv{1}
\@writefile{toc}{\contentsline {subsubsection}{\numberline {4.2.1.3}get\discretionary {-}{}{}Val}{9}{subsubsection.4.2.1.3}}
\newlabel{classAI_a57d3e7eeae75c217944e9fac174eeded}{{4.2.1.3}{9}{get\-Val}{subsubsection.4.2.1.3}{}}
\@writefile{toc}{\contentsline {subsubsection}{\numberline {4.2.1.4}incoming\discretionary {-}{}{}Hooks}{9}{subsubsection.4.2.1.4}}
\newlabel{classAI_aa059fd7f1be8352a4d84a4253bf9a7ab}{{4.2.1.4}{9}{incoming\-Hooks}{subsubsection.4.2.1.4}{}}
\@writefile{toc}{\contentsline {subsubsection}{\numberline {4.2.1.5}max\discretionary {-}{}{}Value\discretionary {-}{}{}Action}{9}{subsubsection.4.2.1.5}}
\newlabel{classAI_a142ee76451544a9820192049ce7b5ed4}{{4.2.1.5}{9}{max\-Value\-Action}{subsubsection.4.2.1.5}{}}
\@writefile{toc}{\contentsline {subsubsection}{\numberline {4.2.1.6}surround}{9}{subsubsection.4.2.1.6}}
\newlabel{classAI_a66d87ee1ecda552c9d7f52d9227e0bed}{{4.2.1.6}{9}{surround}{subsubsection.4.2.1.6}{}}
\gdef \PWST@v{1}
\gdef \PWST@vi{1}
\@writefile{toc}{\contentsline {section}{\numberline {4.3}Check\discretionary {-}{}{}Message Class Reference}{10}{section.4.3}}
\newlabel{classCheckMessage}{{4.3}{10}{Check\-Message Class Reference}{section.4.3}{}}
\newlabel{classCheckMessage_ad65a08ac661e390d7dccf30680f76fa9}{{4.3}{10}{Public Member Functions}{section*.6}{}}
\newlabel{classCheckMessage_a62ff220dc90781d716443cf965b03841}{{4.3}{10}{Public Attributes}{section*.7}{}}
\@writefile{toc}{\contentsline {subsection}{\numberline {4.3.1}Member Function Documentation}{10}{subsection.4.3.1}}
\@writefile{toc}{\contentsline {subsubsection}{\numberline {4.3.1.1}load\discretionary {-}{}{}From}{10}{subsubsection.4.3.1.1}}
\newlabel{classCheckMessage_afc1447d225bebdd0b3b951e5e83227e3}{{4.3.1.1}{10}{load\-From}{subsubsection.4.3.1.1}{}}
\@writefile{toc}{\contentsline {subsubsection}{\numberline {4.3.1.2}load\discretionary {-}{}{}To}{10}{subsubsection.4.3.1.2}}
\newlabel{classCheckMessage_a105a72009db28de0b11c5c493a80f450}{{4.3.1.2}{10}{load\-To}{subsubsection.4.3.1.2}{}}
\@writefile{toc}{\contentsline {section}{\numberline {4.4}Circle Class Reference}{10}{section.4.4}}
\newlabel{classCircle}{{4.4}{10}{Circle Class Reference}{section.4.4}{}}
\newlabel{classCircle_ad5a374e3a32fd055b83b015c9205beac}{{4.4}{11}{Public Member Functions}{section*.8}{}}
\newlabel{classCircle_afc6558cfe403f4810645520869471477}{{4.4}{11}{Public Attributes}{section*.9}{}}
\newlabel{classCircle_a6556d4b9d6b1ada01d6a35db4007556a}{{4.4}{11}{Public Attributes}{section*.9}{}}
\newlabel{classCircle_adb34f02fb918efe0ed094649e51db2c4}{{4.4}{11}{Public Attributes}{section*.9}{}}
\@writefile{toc}{\contentsline {subsection}{\numberline {4.4.1}Detailed Description}{11}{subsection.4.4.1}}
\@writefile{toc}{\contentsline {section}{\numberline {4.5}Cmd\discretionary {-}{}{}Message Class Reference}{11}{section.4.5}}
\newlabel{classCmdMessage}{{4.5}{11}{Cmd\-Message Class Reference}{section.4.5}{}}
\newlabel{classCmdMessage_ac1028addef70437038314974f5517bd0}{{4.5}{11}{Public Member Functions}{section*.10}{}}
\newlabel{classCmdMessage_af7eb6af649c8c2e19bad3ee30192fe79}{{4.5}{11}{Public Attributes}{section*.11}{}}
\@writefile{toc}{\contentsline {subsection}{\numberline {4.5.1}Member Function Documentation}{11}{subsection.4.5.1}}
\@writefile{toc}{\contentsline {subsubsection}{\numberline {4.5.1.1}load\discretionary {-}{}{}From}{11}{subsubsection.4.5.1.1}}
\newlabel{classCmdMessage_a5817164bdaf6a420f334d87b8925a3b4}{{4.5.1.1}{11}{load\-From}{subsubsection.4.5.1.1}{}}
\gdef \PWST@vii{1}
\gdef \PWST@viii{1}
\gdef \PWST@ix{1}
\@writefile{toc}{\contentsline {subsubsection}{\numberline {4.5.1.2}load\discretionary {-}{}{}To}{12}{subsubsection.4.5.1.2}}
\newlabel{classCmdMessage_ada5444e40567d591350df83df756b3ee}{{4.5.1.2}{12}{load\-To}{subsubsection.4.5.1.2}{}}
\@writefile{toc}{\contentsline {section}{\numberline {4.6}Command Class Reference}{12}{section.4.6}}
\newlabel{classCommand}{{4.6}{12}{Command Class Reference}{section.4.6}{}}
\newlabel{classCommand_affccf3e1f78f266a1830df234fbe1099}{{4.6}{12}{Public Attributes}{section*.13}{}}
\newlabel{classCommand_a32c3c2621f8581921b781b5e2ef85c06}{{4.6}{12}{Public Attributes}{section*.13}{}}
\newlabel{classCommand_a8e576e19330245b710e869ada358c014}{{4.6}{12}{Public Attributes}{section*.13}{}}
\newlabel{classCommand_a73272bdf1742602bee9d3921815fcb4d}{{4.6}{12}{Public Attributes}{section*.13}{}}
\@writefile{toc}{\contentsline {subsection}{\numberline {4.6.1}Member Function Documentation}{12}{subsection.4.6.1}}
\@writefile{toc}{\contentsline {subsubsection}{\numberline {4.6.1.1}init}{12}{subsubsection.4.6.1.1}}
\newlabel{classCommand_a79a6f8e664e0646046a8f520860683c9}{{4.6.1.1}{12}{init}{subsubsection.4.6.1.1}{}}
\@writefile{toc}{\contentsline {section}{\numberline {4.7}Data Struct Reference}{12}{section.4.7}}
\newlabel{structData}{{4.7}{12}{Data Struct Reference}{section.4.7}{}}
\newlabel{structData_a9a8cd8e73dbd46f97b01b2be08654bd5}{{4.7}{12}{Public Attributes}{section*.14}{}}
\gdef \PWST@x{1}
\gdef \PWST@xi{1}
\@writefile{toc}{\contentsline {section}{\numberline {4.8}Data\discretionary {-}{}{}Message Class Reference}{13}{section.4.8}}
\newlabel{classDataMessage}{{4.8}{13}{Data\-Message Class Reference}{section.4.8}{}}
\newlabel{classDataMessage_a6f2eee02ddeadf9165944f6bb8d5af46}{{4.8}{13}{Public Member Functions}{section*.15}{}}
\newlabel{classDataMessage_a10fef7442ceeed2417cb74bb0434df90}{{4.8}{13}{Public Attributes}{section*.16}{}}
\@writefile{toc}{\contentsline {subsection}{\numberline {4.8.1}Member Function Documentation}{13}{subsection.4.8.1}}
\@writefile{toc}{\contentsline {subsubsection}{\numberline {4.8.1.1}load\discretionary {-}{}{}From}{13}{subsubsection.4.8.1.1}}
\newlabel{classDataMessage_a216f760825acd476064bb0ddbe137c6a}{{4.8.1.1}{13}{load\-From}{subsubsection.4.8.1.1}{}}
\@writefile{toc}{\contentsline {subsubsection}{\numberline {4.8.1.2}load\discretionary {-}{}{}To}{13}{subsubsection.4.8.1.2}}
\newlabel{classDataMessage_ac334346397e0d24ef7bf8206b0d5c514}{{4.8.1.2}{13}{load\-To}{subsubsection.4.8.1.2}{}}
\@writefile{toc}{\contentsline {section}{\numberline {4.9}Game\discretionary {-}{}{}Engine Class Reference}{14}{section.4.9}}
\newlabel{classGameEngine}{{4.9}{14}{Game\-Engine Class Reference}{section.4.9}{}}
\newlabel{classGameEngine_ad8f22872c8aaa40dd1dc00d0d42730a4}{{4.9}{14}{Public Member Functions}{section*.17}{}}
\newlabel{classGameEngine_acce8292f416e9e76b8a03c3dbb472ea3}{{4.9}{14}{Public Member Functions}{section*.17}{}}
\newlabel{classGameEngine_a9a82dc0ff71f32d95f82267786d23049}{{4.9}{14}{Public Member Functions}{section*.17}{}}
\newlabel{classGameEngine_a2a34c45a99a735531ea67f921ce6f6b5}{{4.9}{14}{Public Member Functions}{section*.17}{}}
\newlabel{classGameEngine_a1315a46e4d0b83b59f15c5d26d6e7f25}{{4.9}{14}{Public Member Functions}{section*.17}{}}
\newlabel{classGameEngine_ad53585d9f0fc3eb4319e1fda2ec981e7}{{4.9}{14}{Public Member Functions}{section*.17}{}}
\newlabel{classGameEngine_a4c5ec4a9a4e1c2e94fa38b562d572ba9}{{4.9}{14}{Public Member Functions}{section*.17}{}}
\newlabel{classGameEngine_adff06491e4d9945984f848bd4b1110e1}{{4.9}{14}{Public Member Functions}{section*.17}{}}
\newlabel{classGameEngine_afd02854e409eb7710d7e5bd3d3844cba}{{4.9}{14}{Static Public Member Functions}{section*.18}{}}
\newlabel{classGameEngine_aa09b23f6d964a9c3732dffee5da6541e}{{4.9}{14}{Public Attributes}{section*.19}{}}
\newlabel{classGameEngine_a8daf0b3ec6b4d1fc3e1ad5f8176d7b26}{{4.9}{14}{Public Attributes}{section*.19}{}}
\newlabel{classGameEngine_a55f378062cf2e06d95f5e6bb78d9dbe9}{{4.9}{14}{Public Attributes}{section*.19}{}}
\newlabel{classGameEngine_a1bfc2de34a63a2c14168bba503047e18}{{4.9}{14}{Public Attributes}{section*.19}{}}
\newlabel{classGameEngine_a47777daa4b0775a27099c1aa1789d617}{{4.9}{14}{Public Attributes}{section*.19}{}}
\newlabel{classGameEngine_abb6e43bdcd9d71b8b1bf0aec76c9df9d}{{4.9}{14}{Public Attributes}{section*.19}{}}
\newlabel{classGameEngine_af6d005b96e8903b313b427ec5f22276d}{{4.9}{14}{Public Attributes}{section*.19}{}}
\@writefile{toc}{\contentsline {subsection}{\numberline {4.9.1}Constructor \& Destructor Documentation}{14}{subsection.4.9.1}}
\@writefile{toc}{\contentsline {subsubsection}{\numberline {4.9.1.1}$\sim $\discretionary {-}{}{}Game\discretionary {-}{}{}Engine}{14}{subsubsection.4.9.1.1}}
\newlabel{classGameEngine_a8e59d8341ef9d2dcc62eee1437e37f14}{{4.9.1.1}{14}{$\sim $\-Game\-Engine}{subsubsection.4.9.1.1}{}}
\gdef \PWST@xii{1}
\gdef \PWST@xiii{1}
\gdef \PWST@xiv{1}
\gdef \PWST@xv{1}
\@writefile{toc}{\contentsline {subsection}{\numberline {4.9.2}Member Function Documentation}{15}{subsection.4.9.2}}
\@writefile{toc}{\contentsline {subsubsection}{\numberline {4.9.2.1}apply\discretionary {-}{}{}Command}{15}{subsubsection.4.9.2.1}}
\newlabel{classGameEngine_a4cd9513e881d852ec42d38e002bb6654}{{4.9.2.1}{15}{apply\-Command}{subsubsection.4.9.2.1}{}}
\@writefile{toc}{\contentsline {subsubsection}{\numberline {4.9.2.2}init}{15}{subsubsection.4.9.2.2}}
\newlabel{classGameEngine_a53de05b41997fd808e5de0df78727ff4}{{4.9.2.2}{15}{init}{subsubsection.4.9.2.2}{}}
\@writefile{toc}{\contentsline {subsubsection}{\numberline {4.9.2.3}simulate}{15}{subsubsection.4.9.2.3}}
\newlabel{classGameEngine_ae3485dfb84983997260e2d56bb6ce246}{{4.9.2.3}{15}{simulate}{subsubsection.4.9.2.3}{}}
\@writefile{toc}{\contentsline {subsubsection}{\numberline {4.9.2.4}virtual\discretionary {-}{}{}Simulation}{15}{subsubsection.4.9.2.4}}
\newlabel{classGameEngine_aaf67054e3b7c2da2b09bad3a77b0908e}{{4.9.2.4}{15}{virtual\-Simulation}{subsubsection.4.9.2.4}{}}
\@writefile{toc}{\contentsline {section}{\numberline {4.10}Game\discretionary {-}{}{}Obj Class Reference}{15}{section.4.10}}
\newlabel{classGameObj}{{4.10}{15}{Game\-Obj Class Reference}{section.4.10}{}}
\newlabel{classGameObj_a25a235151519ca1693ddfbabf6ed5126}{{4.10}{16}{Public Attributes}{section*.22}{}}
\@writefile{toc}{\contentsline {subsection}{\numberline {4.10.1}Detailed Description}{16}{subsection.4.10.1}}
\@writefile{toc}{\contentsline {subsection}{\numberline {4.10.2}Constructor \& Destructor Documentation}{16}{subsection.4.10.2}}
\@writefile{toc}{\contentsline {subsubsection}{\numberline {4.10.2.1}Game\discretionary {-}{}{}Obj}{16}{subsubsection.4.10.2.1}}
\newlabel{classGameObj_af2d47020f06cb05e3284fd6c04eea2a3}{{4.10.2.1}{16}{Game\-Obj}{subsubsection.4.10.2.1}{}}
\gdef \PWST@xvi{1}
\gdef \PWST@xvii{1}
\gdef \PWST@xviii{1}
\@writefile{toc}{\contentsline {subsubsection}{\numberline {4.10.2.2}$\sim $\discretionary {-}{}{}Game\discretionary {-}{}{}Obj}{17}{subsubsection.4.10.2.2}}
\newlabel{classGameObj_ad3a26f429c164448b0ce57c89080d507}{{4.10.2.2}{17}{$\sim $\-Game\-Obj}{subsubsection.4.10.2.2}{}}
\@writefile{toc}{\contentsline {subsection}{\numberline {4.10.3}Member Function Documentation}{17}{subsection.4.10.3}}
\@writefile{toc}{\contentsline {subsubsection}{\numberline {4.10.3.1}clone}{17}{subsubsection.4.10.3.1}}
\newlabel{classGameObj_a9a26be5ba7ba780446165b28545d6b96}{{4.10.3.1}{17}{clone}{subsubsection.4.10.3.1}{}}
\@writefile{toc}{\contentsline {subsubsection}{\numberline {4.10.3.2}draw}{17}{subsubsection.4.10.3.2}}
\newlabel{classGameObj_aad5a9a9e4aff9a58fdd4dd1c0e9d0ab0}{{4.10.3.2}{17}{draw}{subsubsection.4.10.3.2}{}}
\@writefile{toc}{\contentsline {subsubsection}{\numberline {4.10.3.3}load\discretionary {-}{}{}From}{17}{subsubsection.4.10.3.3}}
\newlabel{classGameObj_a02ed7977292f8dda9dfd1c6d18c4d12f}{{4.10.3.3}{17}{load\-From}{subsubsection.4.10.3.3}{}}
\@writefile{toc}{\contentsline {subsubsection}{\numberline {4.10.3.4}load\discretionary {-}{}{}To}{17}{subsubsection.4.10.3.4}}
\newlabel{classGameObj_ab165e8f989b16547e0ba0f87b952db1c}{{4.10.3.4}{17}{load\-To}{subsubsection.4.10.3.4}{}}
\gdef \PWST@xix{1}
\gdef \PWST@xx{1}
\gdef \PWST@xxi{1}
\@writefile{toc}{\contentsline {subsubsection}{\numberline {4.10.3.5}operator=}{18}{subsubsection.4.10.3.5}}
\newlabel{classGameObj_a4d0a325718c2facf8a6b76f033779c43}{{4.10.3.5}{18}{operator=}{subsubsection.4.10.3.5}{}}
\@writefile{toc}{\contentsline {subsubsection}{\numberline {4.10.3.6}process\discretionary {-}{}{}Command}{18}{subsubsection.4.10.3.6}}
\newlabel{classGameObj_ae368a74308a43b870d279bee948733a5}{{4.10.3.6}{18}{process\-Command}{subsubsection.4.10.3.6}{}}
\@writefile{toc}{\contentsline {subsubsection}{\numberline {4.10.3.7}update}{18}{subsubsection.4.10.3.7}}
\newlabel{classGameObj_a1b23e155c7fea88b7964948634cce7c7}{{4.10.3.7}{18}{update}{subsubsection.4.10.3.7}{}}
\@writefile{toc}{\contentsline {section}{\numberline {4.11}Game\discretionary {-}{}{}State Class Reference}{18}{section.4.11}}
\newlabel{classGameState}{{4.11}{18}{Game\-State Class Reference}{section.4.11}{}}
\gdef \PWST@xxii{1}
\newlabel{classGameState_a898b107061a20404371e4a62ae75f90a}{{4.11}{19}{Public Attributes}{section*.25}{}}
\newlabel{classGameState_a6bb8083409d6c3926830c1e1e9a78c9a}{{4.11}{19}{Public Attributes}{section*.25}{}}
\@writefile{toc}{\contentsline {subsection}{\numberline {4.11.1}Detailed Description}{19}{subsection.4.11.1}}
\@writefile{toc}{\contentsline {subsection}{\numberline {4.11.2}Constructor \& Destructor Documentation}{19}{subsection.4.11.2}}
\@writefile{toc}{\contentsline {subsubsection}{\numberline {4.11.2.1}Game\discretionary {-}{}{}State}{19}{subsubsection.4.11.2.1}}
\newlabel{classGameState_a0f4e35df82fc9606cbc18ced8e4125a4}{{4.11.2.1}{19}{Game\-State}{subsubsection.4.11.2.1}{}}
\@writefile{toc}{\contentsline {subsubsection}{\numberline {4.11.2.2}$\sim $\discretionary {-}{}{}Game\discretionary {-}{}{}State}{19}{subsubsection.4.11.2.2}}
\newlabel{classGameState_ae623df5042cd0c17daa3394fdcb397b3}{{4.11.2.2}{19}{$\sim $\-Game\-State}{subsubsection.4.11.2.2}{}}
\@writefile{toc}{\contentsline {subsection}{\numberline {4.11.3}Member Function Documentation}{19}{subsection.4.11.3}}
\@writefile{toc}{\contentsline {subsubsection}{\numberline {4.11.3.1}load\discretionary {-}{}{}From}{19}{subsubsection.4.11.3.1}}
\newlabel{classGameState_ac5c9af76a52173360f81c1e140786350}{{4.11.3.1}{19}{load\-From}{subsubsection.4.11.3.1}{}}
\gdef \PWST@xxiii{1}
\gdef \PWST@xxiv{1}
\gdef \PWST@xxv{1}
\@writefile{toc}{\contentsline {subsubsection}{\numberline {4.11.3.2}load\discretionary {-}{}{}To}{20}{subsubsection.4.11.3.2}}
\newlabel{classGameState_a910bb387d9ff5f90ba4e002d7147dd20}{{4.11.3.2}{20}{load\-To}{subsubsection.4.11.3.2}{}}
\@writefile{toc}{\contentsline {subsubsection}{\numberline {4.11.3.3}operator=}{20}{subsubsection.4.11.3.3}}
\newlabel{classGameState_a892722508b354492dc99528bbf148501}{{4.11.3.3}{20}{operator=}{subsubsection.4.11.3.3}{}}
\@writefile{toc}{\contentsline {section}{\numberline {4.12}Game\discretionary {-}{}{}State\discretionary {-}{}{}:\discretionary {-}{}{}:Head Struct Reference}{20}{section.4.12}}
\newlabel{structGameState_1_1Head}{{4.12}{20}{Game\-State\-:\-:Head Struct Reference}{section.4.12}{}}
\newlabel{structGameState_1_1Head_a606b1f61cf359018de23ee55ffb0b12f}{{4.12}{20}{Public Attributes}{section*.26}{}}
\newlabel{structGameState_1_1Head_ad51796d6aa08b91bdf321ae11c3ad3dd}{{4.12}{20}{Public Attributes}{section*.26}{}}
\@writefile{toc}{\contentsline {subsection}{\numberline {4.12.1}Detailed Description}{20}{subsection.4.12.1}}
\@writefile{toc}{\contentsline {section}{\numberline {4.13}Game\discretionary {-}{}{}Obj\discretionary {-}{}{}:\discretionary {-}{}{}:Head Struct Reference}{20}{section.4.13}}
\newlabel{structGameObj_1_1Head}{{4.13}{20}{Game\-Obj\-:\-:Head Struct Reference}{section.4.13}{}}
\newlabel{structGameObj_1_1Head_a28757d94a660ee57dae5a166efe3adad}{{4.13}{21}{Public Attributes}{section*.27}{}}
\newlabel{structGameObj_1_1Head_a669b358e57fbe258f02e01914d56ebfe}{{4.13}{21}{Public Attributes}{section*.27}{}}
\newlabel{structGameObj_1_1Head_a36f1333a24f4e49edaab632f3be303ae}{{4.13}{21}{Public Attributes}{section*.27}{}}
\newlabel{structGameObj_1_1Head_ae29a0e6d43a3895d6cb75d67c2b24d5d}{{4.13}{21}{Public Attributes}{section*.27}{}}
\newlabel{structGameObj_1_1Head_ae21d03bdd6e45286ba1e2121a416ad36}{{4.13}{21}{Public Attributes}{section*.27}{}}
\newlabel{structGameObj_1_1Head_a488cea876379f844d06910d1bd9d2c2e}{{4.13}{21}{Public Attributes}{section*.27}{}}
\newlabel{structGameObj_1_1Head_a13899912d7fb55c2be123c3529124f89}{{4.13}{21}{Public Attributes}{section*.27}{}}
\newlabel{structGameObj_1_1Head_a63e2c6ef6c37c60ff4195f8a68cee4bb}{{4.13}{21}{Public Attributes}{section*.27}{}}
\newlabel{structGameObj_1_1Head_aaa5c89c4734984551559c6c157a213ba}{{4.13}{21}{Public Attributes}{section*.27}{}}
\newlabel{structGameObj_1_1Head_aa318d67611d155ab2d7ed1030509c007}{{4.13}{21}{Public Attributes}{section*.27}{}}
\newlabel{structGameObj_1_1Head_a90864371cf01856a65c6cf1a69ffb0e7}{{4.13}{21}{Public Attributes}{section*.27}{}}
\newlabel{structGameObj_1_1Head_a2d2d17d9a99764f67fe50ca57bdf0d9c}{{4.13}{21}{Public Attributes}{section*.27}{}}
\newlabel{structGameObj_1_1Head_a196faf163d449f85efb32993379f0e1f}{{4.13}{21}{Public Attributes}{section*.27}{}}
\newlabel{structGameObj_1_1Head_a192a17741ccb0d6fe662e4fcf525b82f}{{4.13}{21}{Public Attributes}{section*.27}{}}
\newlabel{structGameObj_1_1Head_a42cce6fb6363e0f68aee4952f44d1ca1}{{4.13}{21}{Public Attributes}{section*.27}{}}
\newlabel{structGameObj_1_1Head_a483382565aeb38a1c40543b2a93f6869}{{4.13}{21}{Public Attributes}{section*.27}{}}
\newlabel{structGameObj_1_1Head_a60af099bac728293ac084f81fe301dde}{{4.13}{21}{Public Attributes}{section*.27}{}}
\newlabel{structGameObj_1_1Head_a8a79fad52a4c6aef439cffe4d3bb74bd}{{4.13}{21}{Public Attributes}{section*.27}{}}
\newlabel{structGameObj_1_1Head_a98353d88629a8b08c80606017b109c40}{{4.13}{21}{Public Attributes}{section*.27}{}}
\newlabel{structGameObj_1_1Head_ab4a8cece80ce2c4f1a6e82f4d112390d}{{4.13}{21}{Public Attributes}{section*.27}{}}
\newlabel{structGameObj_1_1Head_a0f6359f889f54f6c788758f5c12826a2}{{4.13}{21}{Public Attributes}{section*.27}{}}
\newlabel{structGameObj_1_1Head_a3c6fa501e3da34a150257dd9594fa3fa}{{4.13}{21}{Public Attributes}{section*.27}{}}
\newlabel{structGameObj_1_1Head_a9c7a876b66b79125d8d5dd521d66c0d6}{{4.13}{21}{Public Attributes}{section*.27}{}}
\newlabel{structGameObj_1_1Head_a8e80363e8e385d74ceb8155283f5abad}{{4.13}{21}{Public Attributes}{section*.27}{}}
\newlabel{structGameObj_1_1Head_a58a0848260bd2ab0b724b69844b68370}{{4.13}{21}{Public Attributes}{section*.27}{}}
\newlabel{structGameObj_1_1Head_aeb004be198baac97a2cc0ef62dce570b}{{4.13}{21}{Public Attributes}{section*.27}{}}
\newlabel{structGameObj_1_1Head_ac2be73328b1dffe8f2aacded370ddc82}{{4.13}{21}{Public Attributes}{section*.27}{}}
\newlabel{structGameObj_1_1Head_ac1fe2618366a6b025a46db508a463311}{{4.13}{21}{Public Attributes}{section*.27}{}}
\newlabel{structGameObj_1_1Head_acd428b1f04d89547869f9887921740f3}{{4.13}{21}{Public Attributes}{section*.27}{}}
\@writefile{toc}{\contentsline {subsection}{\numberline {4.13.1}Detailed Description}{21}{subsection.4.13.1}}
\@writefile{toc}{\contentsline {section}{\numberline {4.14}Message\discretionary {-}{}{}:\discretionary {-}{}{}:Header Struct Reference}{21}{section.4.14}}
\newlabel{structMessage_1_1Header}{{4.14}{21}{Message\-:\-:Header Struct Reference}{section.4.14}{}}
\newlabel{structMessage_1_1Header_a34d06232027b0ed97acd44b92c13dec0}{{4.14}{21}{Public Attributes}{section*.28}{}}
\newlabel{structMessage_1_1Header_a2e5cabdc37d266d8462f2650b0bdf20f}{{4.14}{21}{Public Attributes}{section*.28}{}}
\newlabel{structMessage_1_1Header_aa47f501c2282aa6a8aa0a3d92ba9ff0e}{{4.14}{21}{Public Attributes}{section*.28}{}}
\newlabel{structMessage_1_1Header_a756a71a6b6b7a6bc68cbb46ca23c716b}{{4.14}{21}{Public Attributes}{section*.28}{}}
\newlabel{structMessage_1_1Header_a60a003f27832891301246d9c2e4bc54f}{{4.14}{21}{Public Attributes}{section*.28}{}}
\@writefile{toc}{\contentsline {section}{\numberline {4.15}Hook Class Reference}{22}{section.4.15}}
\newlabel{classHook}{{4.15}{22}{Hook Class Reference}{section.4.15}{}}
\newlabel{classHook_a17812d01c801de7ff98d9ba239b0c58c}{{4.15}{22}{Public Member Functions}{section*.29}{}}
\newlabel{classHook_ada2fa692fa738801393da28f4c53ca87}{{4.15}{22}{Public Member Functions}{section*.29}{}}
\newlabel{classHook_ae1d200f4a18096bbbe032ed02764a83e}{{4.15}{22}{Public Attributes}{section*.30}{}}
\@writefile{toc}{\contentsline {subsection}{\numberline {4.15.1}Constructor \& Destructor Documentation}{22}{subsection.4.15.1}}
\@writefile{toc}{\contentsline {subsubsection}{\numberline {4.15.1.1}$\sim $\discretionary {-}{}{}Hook}{22}{subsubsection.4.15.1.1}}
\newlabel{classHook_a9bccbd08f6c90bdb18a0978738a518fd}{{4.15.1.1}{22}{$\sim $\-Hook}{subsubsection.4.15.1.1}{}}
\@writefile{toc}{\contentsline {subsubsection}{\numberline {4.15.1.2}Hook}{23}{subsubsection.4.15.1.2}}
\newlabel{classHook_a55780965f747979d250d17bd882e7a7f}{{4.15.1.2}{23}{Hook}{subsubsection.4.15.1.2}{}}
\gdef \PWST@xxvi{1}
\gdef \PWST@xxvii{1}
\gdef \PWST@xxviii{1}
\gdef \PWST@xxix{1}
\@writefile{toc}{\contentsline {subsection}{\numberline {4.15.2}Member Function Documentation}{24}{subsection.4.15.2}}
\@writefile{toc}{\contentsline {subsubsection}{\numberline {4.15.2.1}catch\discretionary {-}{}{}It}{24}{subsubsection.4.15.2.1}}
\newlabel{classHook_a6ab0edc29d55296e52f9304902ba1b05}{{4.15.2.1}{24}{catch\-It}{subsubsection.4.15.2.1}{}}
\@writefile{toc}{\contentsline {subsubsection}{\numberline {4.15.2.2}clone}{24}{subsubsection.4.15.2.2}}
\newlabel{classHook_ad38b8e1498b1805640fcbf5a6a191a8b}{{4.15.2.2}{24}{clone}{subsubsection.4.15.2.2}{}}
\@writefile{toc}{\contentsline {subsubsection}{\numberline {4.15.2.3}draw}{24}{subsubsection.4.15.2.3}}
\newlabel{classHook_ac121cf4b9a6e8ebbf9c3fae25270b2e7}{{4.15.2.3}{24}{draw}{subsubsection.4.15.2.3}{}}
\@writefile{toc}{\contentsline {subsubsection}{\numberline {4.15.2.4}init}{24}{subsubsection.4.15.2.4}}
\newlabel{classHook_a451b88a009b91cfdacc88b797b803b5d}{{4.15.2.4}{24}{init}{subsubsection.4.15.2.4}{}}
\@writefile{toc}{\contentsline {subsubsection}{\numberline {4.15.2.5}load\discretionary {-}{}{}From}{24}{subsubsection.4.15.2.5}}
\newlabel{classHook_a96cbe2fb1291a72bf7fb6309b11d57d4}{{4.15.2.5}{24}{load\-From}{subsubsection.4.15.2.5}{}}
\@writefile{toc}{\contentsline {subsubsection}{\numberline {4.15.2.6}load\discretionary {-}{}{}To}{24}{subsubsection.4.15.2.6}}
\newlabel{classHook_ab9e5996ac7a18b52f7316069275e8a14}{{4.15.2.6}{24}{load\-To}{subsubsection.4.15.2.6}{}}
\gdef \PWST@xxx{1}
\gdef \PWST@xxxi{1}
\gdef \PWST@xxxii{1}
\@writefile{toc}{\contentsline {subsubsection}{\numberline {4.15.2.7}process\discretionary {-}{}{}Command}{26}{subsubsection.4.15.2.7}}
\newlabel{classHook_a909a44cc54ec6a0cf5ea7f0816777956}{{4.15.2.7}{26}{process\-Command}{subsubsection.4.15.2.7}{}}
\@writefile{toc}{\contentsline {subsubsection}{\numberline {4.15.2.8}update}{26}{subsubsection.4.15.2.8}}
\newlabel{classHook_afc18755c62514ba15edf8426509cccd4}{{4.15.2.8}{26}{update}{subsubsection.4.15.2.8}{}}
\@writefile{toc}{\contentsline {section}{\numberline {4.16}Input Class Reference}{26}{section.4.16}}
\newlabel{classInput}{{4.16}{26}{Input Class Reference}{section.4.16}{}}
\@writefile{toc}{\contentsline {section}{\numberline {4.17}Line Class Reference}{26}{section.4.17}}
\newlabel{classLine}{{4.17}{26}{Line Class Reference}{section.4.17}{}}
\newlabel{classLine_a06d9ce53ef79fbd1661b1b3e1243b257}{{4.17}{26}{Public Member Functions}{section*.31}{}}
\newlabel{classLine_af5de7f0b37586f9e379524e61a1debc1}{{4.17}{27}{Public Attributes}{section*.32}{}}
\newlabel{classLine_a9db3a3baaf1c81db5c645ae884b21670}{{4.17}{27}{Public Attributes}{section*.32}{}}
\@writefile{toc}{\contentsline {subsection}{\numberline {4.17.1}Detailed Description}{27}{subsection.4.17.1}}
\@writefile{toc}{\contentsline {section}{\numberline {4.18}Logger Class Reference}{27}{section.4.18}}
\newlabel{classLogger}{{4.18}{27}{Logger Class Reference}{section.4.18}{}}
\newlabel{classLogger_a595308f483f187776b6404480ef6a68d}{{4.18}{27}{Public Member Functions}{section*.33}{}}
\newlabel{classLogger_ad09e799c162b6e2a4a4e7ed6c84a2db2}{{4.18}{27}{Static Public Member Functions}{section*.34}{}}
\newlabel{classLogger_a9e68e0b3d0746dba30b92affe912890a}{{4.18}{27}{Public Attributes}{section*.35}{}}
\newlabel{classLogger_a62340f7299624828b298980dcd668a28}{{4.18}{27}{Public Attributes}{section*.35}{}}
\newlabel{classLogger_ab82528442fc0dd8bdcf749b549d40205}{{4.18}{27}{Public Attributes}{section*.35}{}}
\@writefile{toc}{\contentsline {section}{\numberline {4.19}Map Class Reference}{27}{section.4.19}}
\newlabel{classMap}{{4.19}{27}{Map Class Reference}{section.4.19}{}}
\newlabel{classMap_a42223ac602ff8160c306ec0f71c96380}{{4.19}{27}{Public Member Functions}{section*.36}{}}
\newlabel{classMap_ac2736a242fe49bc3b044fb576dfa8af0}{{4.19}{27}{Public Attributes}{section*.37}{}}
\newlabel{classMap_aa0e0e82c5790ad1efe49776187ed73ba}{{4.19}{27}{Public Attributes}{section*.37}{}}
\newlabel{classMap_af3c1d66e69e4fe8b5a22ded522a44c30}{{4.19}{27}{Public Attributes}{section*.37}{}}
\newlabel{classMap_a15a633af2533ac17caac761592fa572d}{{4.19}{27}{Public Attributes}{section*.37}{}}
\newlabel{classMap_af5816490414cee6b9be2f9ba3bd34a1f}{{4.19}{27}{Public Attributes}{section*.37}{}}
\newlabel{classMap_a031a2ce18fffe67daba485395bcc6e6d}{{4.19}{27}{Public Attributes}{section*.37}{}}
\newlabel{classMap_a1cc15d1ef76971084f06df59f031813a}{{4.19}{27}{Public Attributes}{section*.37}{}}
\newlabel{classMap_ab93ac1a31a61eb6c732595b3d1702b1c}{{4.19}{27}{Public Attributes}{section*.37}{}}
\gdef \PWST@xxxiii{1}
\@writefile{toc}{\contentsline {subsection}{\numberline {4.19.1}Member Function Documentation}{28}{subsection.4.19.1}}
\@writefile{toc}{\contentsline {subsubsection}{\numberline {4.19.1.1}is\discretionary {-}{}{}Bound}{28}{subsubsection.4.19.1.1}}
\newlabel{classMap_add3aebf7dc523a7c652721f20e24b06a}{{4.19.1.1}{28}{is\-Bound}{subsubsection.4.19.1.1}{}}
\@writefile{toc}{\contentsline {section}{\numberline {4.20}Message Class Reference}{28}{section.4.20}}
\newlabel{classMessage}{{4.20}{28}{Message Class Reference}{section.4.20}{}}
\newlabel{classMessage_af1d4532eb235f862372c82045a645f04}{{4.20}{28}{Public Member Functions}{section*.39}{}}
\newlabel{classMessage_aed9713515214dfd23a8f163721165ee3}{{4.20}{28}{Public Attributes}{section*.40}{}}
\@writefile{toc}{\contentsline {subsection}{\numberline {4.20.1}Member Function Documentation}{28}{subsection.4.20.1}}
\@writefile{toc}{\contentsline {subsubsection}{\numberline {4.20.1.1}load\discretionary {-}{}{}From}{28}{subsubsection.4.20.1.1}}
\newlabel{classMessage_a434ff705313e29a5ed3596676880f682}{{4.20.1.1}{28}{load\-From}{subsubsection.4.20.1.1}{}}
\gdef \PWST@xxxiv{1}
\gdef \PWST@xxxv{1}
\@writefile{toc}{\contentsline {subsubsection}{\numberline {4.20.1.2}load\discretionary {-}{}{}To}{29}{subsubsection.4.20.1.2}}
\newlabel{classMessage_a1e1833263dae220b102def4af89035db}{{4.20.1.2}{29}{load\-To}{subsubsection.4.20.1.2}{}}
\@writefile{toc}{\contentsline {section}{\numberline {4.21}Network Class Reference}{29}{section.4.21}}
\newlabel{classNetwork}{{4.21}{29}{Network Class Reference}{section.4.21}{}}
\newlabel{classNetwork_af551f643e19b03338e61035fb5f1934d}{{4.21}{29}{Public Member Functions}{section*.41}{}}
\newlabel{classNetwork_a92193e6fe7a1dc2c7a42d9c9cfed81ed}{{4.21}{29}{Public Member Functions}{section*.41}{}}
\newlabel{classNetwork_a2e560d6420b86f9a04beac0d25e344ea}{{4.21}{29}{Public Member Functions}{section*.41}{}}
\newlabel{classNetwork_ad7160ab284416fad2e5e736f46a7bc28}{{4.21}{29}{Public Member Functions}{section*.41}{}}
\newlabel{classNetwork_aa0330158bc8b75416c379150728257d3}{{4.21}{29}{Public Member Functions}{section*.41}{}}
\newlabel{classNetwork_a858e2d7dd9dfa8cf8a8703297c14b5a3}{{4.21}{29}{Public Member Functions}{section*.41}{}}
\newlabel{classNetwork_a579c7866d232d4e7ca8414462afcf038}{{4.21}{29}{Public Member Functions}{section*.41}{}}
\newlabel{classNetwork_a09d4f491a6521a3ad9893c5859795cfa}{{4.21}{29}{Public Member Functions}{section*.41}{}}
\newlabel{classNetwork_afcca96a5b4a3ffc3cdf5a3a4261897e7}{{4.21}{29}{Public Member Functions}{section*.41}{}}
\newlabel{classNetwork_a3dafba2f36620ec5fb10c081cc7b2bcf}{{4.21}{29}{Public Member Functions}{section*.41}{}}
\newlabel{classNetwork_a151a0ac22851ab9d1798add6a5e5f0e5}{{4.21}{29}{Public Member Functions}{section*.41}{}}
\newlabel{classNetwork_acf27d095d3d48cfe1d5340be7157fcc5}{{4.21}{29}{Public Member Functions}{section*.41}{}}
\newlabel{classNetwork_af551f643e19b03338e61035fb5f1934d}{{4.21}{29}{Public Member Functions}{section*.41}{}}
\newlabel{classNetwork_a92193e6fe7a1dc2c7a42d9c9cfed81ed}{{4.21}{29}{Public Member Functions}{section*.41}{}}
\newlabel{classNetwork_a09d4f491a6521a3ad9893c5859795cfa}{{4.21}{29}{Public Member Functions}{section*.41}{}}
\gdef \PWST@xxxvi{1}
\gdef \PWST@xxxvii{1}
\gdef \PWST@xxxviii{1}
\newlabel{classNetwork_a7c501388f9cea473df614e821d6acb28}{{4.21}{30}{Public Member Functions}{section*.41}{}}
\newlabel{classNetwork_a3dafba2f36620ec5fb10c081cc7b2bcf}{{4.21}{30}{Public Member Functions}{section*.41}{}}
\newlabel{classNetwork_a151a0ac22851ab9d1798add6a5e5f0e5}{{4.21}{30}{Public Member Functions}{section*.41}{}}
\newlabel{classNetwork_acf27d095d3d48cfe1d5340be7157fcc5}{{4.21}{30}{Public Member Functions}{section*.41}{}}
\newlabel{classNetwork_adf38a49a197a37a42d5255f87fa1c290}{{4.21}{30}{Public Member Functions}{section*.41}{}}
\newlabel{classNetwork_a9645c5d3b4a606e59d35322cbee64a1b}{{4.21}{30}{Public Member Functions}{section*.41}{}}
\newlabel{classNetwork_a733509d8e0a0aeae1cca811194ad64e6}{{4.21}{30}{Public Attributes}{section*.42}{}}
\newlabel{classNetwork_a8823eb13ffd779d8cc89fe98ca6156e3}{{4.21}{30}{Public Attributes}{section*.42}{}}
\newlabel{classNetwork_a57aa4e0a4fe56d4cf74fb29f1910b305}{{4.21}{30}{Public Attributes}{section*.42}{}}
\newlabel{classNetwork_a1a562710deeada6ebed3acd84381a828}{{4.21}{30}{Public Attributes}{section*.42}{}}
\newlabel{classNetwork_a89957d75d504677aa643e2e7dbbf6064}{{4.21}{30}{Public Attributes}{section*.42}{}}
\newlabel{classNetwork_a41fddaca3df63ce4f2f6658e3e371ac4}{{4.21}{30}{Public Attributes}{section*.42}{}}
\@writefile{toc}{\contentsline {subsection}{\numberline {4.21.1}Member Function Documentation}{30}{subsection.4.21.1}}
\@writefile{toc}{\contentsline {subsubsection}{\numberline {4.21.1.1}connect\discretionary {-}{}{}To\discretionary {-}{}{}Host}{30}{subsubsection.4.21.1.1}}
\newlabel{classNetwork_a66faecf5cdd5a7f065a181e525e1a343}{{4.21.1.1}{30}{connect\-To\-Host}{subsubsection.4.21.1.1}{}}
\@writefile{toc}{\contentsline {subsubsection}{\numberline {4.21.1.2}connect\discretionary {-}{}{}To\discretionary {-}{}{}Host}{30}{subsubsection.4.21.1.2}}
\newlabel{classNetwork_aea3c01faa1923ce8a6d7a40f743a9c7b}{{4.21.1.2}{30}{connect\-To\-Host}{subsubsection.4.21.1.2}{}}
\@writefile{toc}{\contentsline {subsubsection}{\numberline {4.21.1.3}connect\discretionary {-}{}{}To\discretionary {-}{}{}Peer}{30}{subsubsection.4.21.1.3}}
\newlabel{classNetwork_af3a6dd8d9d05d47df19cfa53cf941a0c}{{4.21.1.3}{30}{connect\-To\-Peer}{subsubsection.4.21.1.3}{}}
\@writefile{toc}{\contentsline {subsubsection}{\numberline {4.21.1.4}create\discretionary {-}{}{}Node}{30}{subsubsection.4.21.1.4}}
\newlabel{classNetwork_a21db8e7d1ec75e7c6dc7e42fb096328a}{{4.21.1.4}{30}{create\-Node}{subsubsection.4.21.1.4}{}}
\gdef \PWST@xxxix{1}
\gdef \PWST@xl{1}
\gdef \PWST@xli{1}
\gdef \PWST@xlii{1}
\gdef \PWST@xliii{1}
\@writefile{toc}{\contentsline {subsubsection}{\numberline {4.21.1.5}find}{31}{subsubsection.4.21.1.5}}
\newlabel{classNetwork_a27abdbd7cf01f460438aee5885841790}{{4.21.1.5}{31}{find}{subsubsection.4.21.1.5}{}}
\@writefile{toc}{\contentsline {subsubsection}{\numberline {4.21.1.6}same\discretionary {-}{}{}\_\discretionary {-}{}{}addr}{31}{subsubsection.4.21.1.6}}
\newlabel{classNetwork_a7c501388f9cea473df614e821d6acb28}{{4.21.1.6}{31}{same\-\_\-addr}{subsubsection.4.21.1.6}{}}
\@writefile{toc}{\contentsline {subsubsection}{\numberline {4.21.1.7}send\discretionary {-}{}{}To\discretionary {-}{}{}All}{31}{subsubsection.4.21.1.7}}
\newlabel{classNetwork_adf38a49a197a37a42d5255f87fa1c290}{{4.21.1.7}{31}{send\-To\-All}{subsubsection.4.21.1.7}{}}
\@writefile{toc}{\contentsline {subsubsection}{\numberline {4.21.1.8}send\discretionary {-}{}{}To\discretionary {-}{}{}Peer}{31}{subsubsection.4.21.1.8}}
\newlabel{classNetwork_a9645c5d3b4a606e59d35322cbee64a1b}{{4.21.1.8}{31}{send\-To\-Peer}{subsubsection.4.21.1.8}{}}
\@writefile{toc}{\contentsline {section}{\numberline {4.22}Network\discretionary {-}{}{}Player Class Reference}{31}{section.4.22}}
\newlabel{classNetworkPlayer}{{4.22}{31}{Network\-Player Class Reference}{section.4.22}{}}
\newlabel{classNetworkPlayer_a1fe9b91242826ba31dde5684c868bbbf}{{4.22}{32}{Public Member Functions}{section*.43}{}}
\newlabel{classNetworkPlayer_a817e426d594b5268cd6c050763c94319}{{4.22}{32}{Public Member Functions}{section*.43}{}}
\newlabel{classNetworkPlayer_a02766348a01c520f59407fd382e52e78}{{4.22}{32}{Public Member Functions}{section*.43}{}}
\newlabel{classNetworkPlayer_a9ede4ea9b9931a7e04cb4ffae8abadd7}{{4.22}{32}{Public Member Functions}{section*.43}{}}
\newlabel{classNetworkPlayer_a19678e32dbef4761c4469836d47f7fda}{{4.22}{32}{Public Member Functions}{section*.43}{}}
\newlabel{classNetworkPlayer_a6d545825e705b77d4be959178554a39a}{{4.22}{32}{Public Member Functions}{section*.43}{}}
\newlabel{classNetworkPlayer_a205c1c9d494f8cd64ef88b5809f8c4fa}{{4.22}{32}{Public Member Functions}{section*.43}{}}
\newlabel{classNetworkPlayer_ab9c104b10ff66c6a8d2722d36f755eab}{{4.22}{32}{Public Member Functions}{section*.43}{}}
\newlabel{classNetworkPlayer_abd06fce3a0fa40ff805b6cc73317aacd}{{4.22}{32}{Public Member Functions}{section*.43}{}}
\newlabel{classNetworkPlayer_a9aef20edf0684f2999451fa3c0d55638}{{4.22}{32}{Public Member Functions}{section*.43}{}}
\newlabel{classNetworkPlayer_ab0dbf0cab6e901e111a9299c11dd2f33}{{4.22}{32}{Public Member Functions}{section*.43}{}}
\newlabel{classNetworkPlayer_a1fe9b91242826ba31dde5684c868bbbf}{{4.22}{32}{Public Member Functions}{section*.43}{}}
\newlabel{classNetworkPlayer_a9b36200f813571369fe038c8aff7394f}{{4.22}{32}{Public Member Functions}{section*.43}{}}
\newlabel{classNetworkPlayer_ab24f65dd96a3e48d42dec40d2d398563}{{4.22}{32}{Public Member Functions}{section*.43}{}}
\newlabel{classNetworkPlayer_a817e426d594b5268cd6c050763c94319}{{4.22}{32}{Public Member Functions}{section*.43}{}}
\newlabel{classNetworkPlayer_aa97da1c8ce8bd4c611d42dc91cc3e14c}{{4.22}{32}{Public Member Functions}{section*.43}{}}
\newlabel{classNetworkPlayer_a02766348a01c520f59407fd382e52e78}{{4.22}{32}{Public Member Functions}{section*.43}{}}
\newlabel{classNetworkPlayer_a9ede4ea9b9931a7e04cb4ffae8abadd7}{{4.22}{32}{Public Member Functions}{section*.43}{}}
\newlabel{classNetworkPlayer_a5366550f56d1ddd06d0db6ed37876e8b}{{4.22}{32}{Public Member Functions}{section*.43}{}}
\newlabel{classNetworkPlayer_a19678e32dbef4761c4469836d47f7fda}{{4.22}{32}{Public Member Functions}{section*.43}{}}
\newlabel{classNetworkPlayer_aa535218609f6722dd3067cab3bfb8dd1}{{4.22}{32}{Public Member Functions}{section*.43}{}}
\newlabel{classNetworkPlayer_a308d21ee3817d90be65d928d885c6e1f}{{4.22}{32}{Public Member Functions}{section*.43}{}}
\newlabel{classNetworkPlayer_ab45bbb4fe98306674cd877055f6fa910}{{4.22}{32}{Public Member Functions}{section*.43}{}}
\newlabel{classNetworkPlayer_a03da742a918f1bdc2715ec81c8abcb12}{{4.22}{32}{Public Member Functions}{section*.43}{}}
\newlabel{classNetworkPlayer_a6d545825e705b77d4be959178554a39a}{{4.22}{32}{Public Member Functions}{section*.43}{}}
\newlabel{classNetworkPlayer_a205c1c9d494f8cd64ef88b5809f8c4fa}{{4.22}{32}{Public Member Functions}{section*.43}{}}
\newlabel{classNetworkPlayer_ab9c104b10ff66c6a8d2722d36f755eab}{{4.22}{32}{Public Member Functions}{section*.43}{}}
\gdef \PWST@xliv{1}
\gdef \PWST@xlv{1}
\newlabel{classNetworkPlayer_a70f03fa28696bd384fc370474e384e10}{{4.22}{33}{Public Attributes}{section*.44}{}}
\newlabel{classNetworkPlayer_a102449ebae067a450fa77e41f6932ef0}{{4.22}{33}{Public Attributes}{section*.44}{}}
\newlabel{classNetworkPlayer_a720787cbb05f3ba46a9ccf969e3ccf46}{{4.22}{33}{Public Attributes}{section*.44}{}}
\newlabel{classNetworkPlayer_a4a404cc49ea57eb049d60893d6b0a5fc}{{4.22}{33}{Public Attributes}{section*.44}{}}
\newlabel{classNetworkPlayer_a17747a2077ad84ded5c8dd396254d68e}{{4.22}{33}{Public Attributes}{section*.44}{}}
\newlabel{classNetworkPlayer_a9d86580100dbf69be4879238d7fae6b2}{{4.22}{33}{Public Attributes}{section*.44}{}}
\newlabel{classNetworkPlayer_a5cae40552f83376d39e96bf6cb0c7c2d}{{4.22}{33}{Public Attributes}{section*.44}{}}
\newlabel{classNetworkPlayer_a73bb7fa3ccc4a877aa5c24b45283e78e}{{4.22}{33}{Public Attributes}{section*.44}{}}
\newlabel{classNetworkPlayer_a3a585fa61d4bb07ff4d54810d51e5fd3}{{4.22}{33}{Public Attributes}{section*.44}{}}
\newlabel{classNetworkPlayer_a9aa18844377a82b0de38bb3ee265f10d}{{4.22}{33}{Public Attributes}{section*.44}{}}
\newlabel{classNetworkPlayer_ae07f4fe6827e1188d7e9fe7e0850e8dc}{{4.22}{33}{Public Attributes}{section*.44}{}}
\newlabel{classNetworkPlayer_aea377c8fcd18881af06ca504a9cc043a}{{4.22}{33}{Public Attributes}{section*.44}{}}
\newlabel{classNetworkPlayer_a308d4ff616f3e0027ac209c32d403fc0}{{4.22}{33}{Public Attributes}{section*.44}{}}
\newlabel{classNetworkPlayer_a1a323a1d33f0f89ce07acebe4eb3f3d6}{{4.22}{33}{Public Attributes}{section*.44}{}}
\newlabel{classNetworkPlayer_adac75823b68d5e4e1f6fdbe9b42b04b6}{{4.22}{33}{Public Attributes}{section*.44}{}}
\newlabel{classNetworkPlayer_a19958cf45dbfecdf16350ec3a79c3283}{{4.22}{33}{Public Attributes}{section*.44}{}}
\newlabel{classNetworkPlayer_a80649c90d2ad72375b95377669d12c2a}{{4.22}{33}{Public Attributes}{section*.44}{}}
\newlabel{classNetworkPlayer_a0224bd409c5fa142853beb153ca9746f}{{4.22}{33}{Public Attributes}{section*.44}{}}
\newlabel{classNetworkPlayer_acd5385e21022cf59feaf2905800a949b}{{4.22}{33}{Public Attributes}{section*.44}{}}
\@writefile{toc}{\contentsline {subsection}{\numberline {4.22.1}Member Function Documentation}{33}{subsection.4.22.1}}
\@writefile{toc}{\contentsline {subsubsection}{\numberline {4.22.1.1}event\discretionary {-}{}{}Connect}{33}{subsubsection.4.22.1.1}}
\newlabel{classNetworkPlayer_aa535218609f6722dd3067cab3bfb8dd1}{{4.22.1.1}{33}{event\-Connect}{subsubsection.4.22.1.1}{}}
\@writefile{toc}{\contentsline {subsubsection}{\numberline {4.22.1.2}event\discretionary {-}{}{}Disconnected}{33}{subsubsection.4.22.1.2}}
\newlabel{classNetworkPlayer_ab45bbb4fe98306674cd877055f6fa910}{{4.22.1.2}{33}{event\-Disconnected}{subsubsection.4.22.1.2}{}}
\@writefile{toc}{\contentsline {subsubsection}{\numberline {4.22.1.3}event\discretionary {-}{}{}Receive}{33}{subsubsection.4.22.1.3}}
\newlabel{classNetworkPlayer_a308d21ee3817d90be65d928d885c6e1f}{{4.22.1.3}{33}{event\-Receive}{subsubsection.4.22.1.3}{}}
\gdef \PWST@xlvi{1}
\gdef \PWST@xlvii{1}
\gdef \PWST@xlviii{1}
\gdef \PWST@xlix{1}
\gdef \PWST@l{1}
\@writefile{toc}{\contentsline {subsubsection}{\numberline {4.22.1.4}init}{34}{subsubsection.4.22.1.4}}
\newlabel{classNetworkPlayer_a9aef20edf0684f2999451fa3c0d55638}{{4.22.1.4}{34}{init}{subsubsection.4.22.1.4}{}}
\@writefile{toc}{\contentsline {subsubsection}{\numberline {4.22.1.5}process\discretionary {-}{}{}Event}{34}{subsubsection.4.22.1.5}}
\newlabel{classNetworkPlayer_aa97da1c8ce8bd4c611d42dc91cc3e14c}{{4.22.1.5}{34}{process\-Event}{subsubsection.4.22.1.5}{}}
\@writefile{toc}{\contentsline {subsubsection}{\numberline {4.22.1.6}push\discretionary {-}{}{}Command}{34}{subsubsection.4.22.1.6}}
\newlabel{classNetworkPlayer_a5366550f56d1ddd06d0db6ed37876e8b}{{4.22.1.6}{34}{push\-Command}{subsubsection.4.22.1.6}{}}
\@writefile{toc}{\contentsline {subsubsection}{\numberline {4.22.1.7}send\discretionary {-}{}{}To\discretionary {-}{}{}All}{34}{subsubsection.4.22.1.7}}
\newlabel{classNetworkPlayer_ab24f65dd96a3e48d42dec40d2d398563}{{4.22.1.7}{34}{send\-To\-All}{subsubsection.4.22.1.7}{}}
\@writefile{toc}{\contentsline {subsubsection}{\numberline {4.22.1.8}send\discretionary {-}{}{}To\discretionary {-}{}{}Peer}{34}{subsubsection.4.22.1.8}}
\newlabel{classNetworkPlayer_a9b36200f813571369fe038c8aff7394f}{{4.22.1.8}{34}{send\-To\-Peer}{subsubsection.4.22.1.8}{}}
\@writefile{toc}{\contentsline {subsubsection}{\numberline {4.22.1.9}start}{34}{subsubsection.4.22.1.9}}
\newlabel{classNetworkPlayer_aff341225dc002d1e11f131870aba6fc0}{{4.22.1.9}{34}{start}{subsubsection.4.22.1.9}{}}
\gdef \PWST@li{1}
\gdef \PWST@lii{1}
\@writefile{toc}{\contentsline {subsubsection}{\numberline {4.22.1.10}update\discretionary {-}{}{}New\discretionary {-}{}{}Peer}{35}{subsubsection.4.22.1.10}}
\newlabel{classNetworkPlayer_a03da742a918f1bdc2715ec81c8abcb12}{{4.22.1.10}{35}{update\-New\-Peer}{subsubsection.4.22.1.10}{}}
\@writefile{toc}{\contentsline {section}{\numberline {4.23}Node Struct Reference}{35}{section.4.23}}
\newlabel{structNode}{{4.23}{35}{Node Struct Reference}{section.4.23}{}}
\newlabel{structNode_acd9590985ce06cf5605ec289da1a8f94}{{4.23}{35}{Public Attributes}{section*.45}{}}
\newlabel{structNode_aa14765edf92f900c16d25159c61463f5}{{4.23}{35}{Public Attributes}{section*.45}{}}
\newlabel{structNode_a06501734c81119ce2c4b8fb550602e78}{{4.23}{35}{Public Attributes}{section*.45}{}}
\newlabel{structNode_a344f49494bda2aea8ba4f6f5377402ba}{{4.23}{35}{Public Attributes}{section*.45}{}}
\newlabel{structNode_abf76af6b4ef7a567fded86bf55022b2a}{{4.23}{35}{Public Attributes}{section*.45}{}}
\newlabel{structNode_aa1ce58f9701880816083d691d4378bb3}{{4.23}{35}{Public Attributes}{section*.45}{}}
\newlabel{structNode_a0d6084bd03d835712d1ba5b108972d1a}{{4.23}{35}{Public Attributes}{section*.45}{}}
\@writefile{toc}{\contentsline {section}{\numberline {4.24}Peer\discretionary {-}{}{}Data Struct Reference}{35}{section.4.24}}
\newlabel{structPeerData}{{4.24}{35}{Peer\-Data Struct Reference}{section.4.24}{}}
\newlabel{structPeerData_ac2c08615a5e49d65ffc5d20a40d6e331}{{4.24}{35}{Public Attributes}{section*.46}{}}
\newlabel{structPeerData_a0d77b7cc22a895aa3c4c6410b4e9a971}{{4.24}{35}{Public Attributes}{section*.46}{}}
\@writefile{toc}{\contentsline {section}{\numberline {4.25}Physics Class Reference}{35}{section.4.25}}
\newlabel{classPhysics}{{4.25}{35}{Physics Class Reference}{section.4.25}{}}
\newlabel{classPhysics_a65eb70041d696db68411e91f9cade891}{{4.25}{36}{Static Public Member Functions}{section*.47}{}}
\newlabel{classPhysics_a3f80597b7c7212b6df28d8080d791e4e}{{4.25}{36}{Static Public Member Functions}{section*.47}{}}
\@writefile{toc}{\contentsline {subsection}{\numberline {4.25.1}Detailed Description}{36}{subsection.4.25.1}}
\@writefile{toc}{\contentsline {section}{\numberline {4.26}Pudge Class Reference}{36}{section.4.26}}
\newlabel{classPudge}{{4.26}{36}{Pudge Class Reference}{section.4.26}{}}
\gdef \PWST@liii{1}
\gdef \PWST@liv{1}
\gdef \PWST@lv{1}
\@writefile{toc}{\contentsline {subsection}{\numberline {4.26.1}Constructor \& Destructor Documentation}{37}{subsection.4.26.1}}
\@writefile{toc}{\contentsline {subsubsection}{\numberline {4.26.1.1}Pudge}{37}{subsubsection.4.26.1.1}}
\newlabel{classPudge_acfd3153fd3eae9fe2e5354b1367569ba}{{4.26.1.1}{37}{Pudge}{subsubsection.4.26.1.1}{}}
\@writefile{toc}{\contentsline {subsubsection}{\numberline {4.26.1.2}$\sim $\discretionary {-}{}{}Pudge}{37}{subsubsection.4.26.1.2}}
\newlabel{classPudge_a90687b0deac6325f62a76cb2622be8c2}{{4.26.1.2}{37}{$\sim $\-Pudge}{subsubsection.4.26.1.2}{}}
\@writefile{toc}{\contentsline {subsection}{\numberline {4.26.2}Member Function Documentation}{37}{subsection.4.26.2}}
\@writefile{toc}{\contentsline {subsubsection}{\numberline {4.26.2.1}apply\discretionary {-}{}{}Move}{37}{subsubsection.4.26.2.1}}
\newlabel{classPudge_a96b56d4b339b4400e30eeed298cc3fff}{{4.26.2.1}{37}{apply\-Move}{subsubsection.4.26.2.1}{}}
\@writefile{toc}{\contentsline {subsubsection}{\numberline {4.26.2.2}apply\discretionary {-}{}{}Rot}{37}{subsubsection.4.26.2.2}}
\newlabel{classPudge_abea324582b0d254bfe90415c9771a7a8}{{4.26.2.2}{37}{apply\-Rot}{subsubsection.4.26.2.2}{}}
\@writefile{toc}{\contentsline {subsubsection}{\numberline {4.26.2.3}clone}{37}{subsubsection.4.26.2.3}}
\newlabel{classPudge_a0718efff78b318a6f6e31651abf5509f}{{4.26.2.3}{37}{clone}{subsubsection.4.26.2.3}{}}
\gdef \PWST@lvi{1}
\gdef \PWST@lvii{1}
\@writefile{toc}{\contentsline {subsubsection}{\numberline {4.26.2.4}die}{38}{subsubsection.4.26.2.4}}
\newlabel{classPudge_a63f470b82921ac8b9d9c39fe10d77cc7}{{4.26.2.4}{38}{die}{subsubsection.4.26.2.4}{}}
\@writefile{toc}{\contentsline {subsubsection}{\numberline {4.26.2.5}draw}{38}{subsubsection.4.26.2.5}}
\newlabel{classPudge_a241108a6072b7f871d4fa1fbbf2cbac4}{{4.26.2.5}{38}{draw}{subsubsection.4.26.2.5}{}}
\@writefile{toc}{\contentsline {subsubsection}{\numberline {4.26.2.6}get\discretionary {-}{}{}Cool\discretionary {-}{}{}Down}{38}{subsubsection.4.26.2.6}}
\newlabel{classPudge_a2057ce8ff88c5b5d7c06a6dedac9cbd6}{{4.26.2.6}{38}{get\-Cool\-Down}{subsubsection.4.26.2.6}{}}
\@writefile{toc}{\contentsline {subsubsection}{\numberline {4.26.2.7}get\discretionary {-}{}{}H\discretionary {-}{}{}P}{38}{subsubsection.4.26.2.7}}
\newlabel{classPudge_a0f0729f412bc6d3e4b665ac0843713e2}{{4.26.2.7}{38}{get\-H\-P}{subsubsection.4.26.2.7}{}}
\@writefile{toc}{\contentsline {subsubsection}{\numberline {4.26.2.8}inflict\discretionary {-}{}{}Damage}{38}{subsubsection.4.26.2.8}}
\newlabel{classPudge_ae9e35d12c5bdb009487215944446d6a1}{{4.26.2.8}{38}{inflict\-Damage}{subsubsection.4.26.2.8}{}}
\@writefile{toc}{\contentsline {subsubsection}{\numberline {4.26.2.9}init}{38}{subsubsection.4.26.2.9}}
\newlabel{classPudge_a4b3068a5a3ad41edac93a3a1a0ea455b}{{4.26.2.9}{38}{init}{subsubsection.4.26.2.9}{}}
\@writefile{toc}{\contentsline {subsubsection}{\numberline {4.26.2.10}load\discretionary {-}{}{}From}{38}{subsubsection.4.26.2.10}}
\newlabel{classPudge_a21d330b30518c7d9dc50d889282ff6a4}{{4.26.2.10}{38}{load\-From}{subsubsection.4.26.2.10}{}}
\gdef \PWST@lviii{1}
\gdef \PWST@lix{1}
\gdef \PWST@lx{1}
\gdef \PWST@lxi{1}
\@writefile{toc}{\contentsline {subsubsection}{\numberline {4.26.2.11}load\discretionary {-}{}{}To}{39}{subsubsection.4.26.2.11}}
\newlabel{classPudge_a1036c1ead7eb5aee0d4fb58fa743b544}{{4.26.2.11}{39}{load\-To}{subsubsection.4.26.2.11}{}}
\@writefile{toc}{\contentsline {subsubsection}{\numberline {4.26.2.12}process\discretionary {-}{}{}Command}{39}{subsubsection.4.26.2.12}}
\newlabel{classPudge_a1465a9815ae12f895d59acadcdc58286}{{4.26.2.12}{39}{process\-Command}{subsubsection.4.26.2.12}{}}
\@writefile{toc}{\contentsline {subsubsection}{\numberline {4.26.2.13}respawn}{39}{subsubsection.4.26.2.13}}
\newlabel{classPudge_af0bb38d3302999713e2c2606fb98d016}{{4.26.2.13}{39}{respawn}{subsubsection.4.26.2.13}{}}
\@writefile{toc}{\contentsline {subsubsection}{\numberline {4.26.2.14}stop}{39}{subsubsection.4.26.2.14}}
\newlabel{classPudge_a5ee23a842deb06932aea3020ccfc1780}{{4.26.2.14}{39}{stop}{subsubsection.4.26.2.14}{}}
\@writefile{toc}{\contentsline {subsubsection}{\numberline {4.26.2.15}update}{39}{subsubsection.4.26.2.15}}
\newlabel{classPudge_a072ef3cd10b88555715a74f868a6c33f}{{4.26.2.15}{39}{update}{subsubsection.4.26.2.15}{}}
\@writefile{toc}{\contentsline {section}{\numberline {4.27}Threaded\discretionary {-}{}{}Entity Class Reference}{39}{section.4.27}}
\newlabel{classThreadedEntity}{{4.27}{39}{Threaded\-Entity Class Reference}{section.4.27}{}}
\newlabel{classThreadedEntity_ac5e5b4aaa04a89f445be9075a2ae1812}{{4.27}{40}{Public Member Functions}{section*.50}{}}
\newlabel{classThreadedEntity_ada2b61d5ebae7f302a45f13dd03a466a}{{4.27}{40}{Public Member Functions}{section*.50}{}}
\@writefile{toc}{\contentsline {section}{\numberline {4.28}Threaded\discretionary {-}{}{}Job Class Reference}{40}{section.4.28}}
\newlabel{classThreadedJob}{{4.28}{40}{Threaded\-Job Class Reference}{section.4.28}{}}
\newlabel{classThreadedJob_a112a26094c58c0dec01ef72ce7acef69}{{4.28}{40}{Public Member Functions}{section*.51}{}}
\newlabel{classThreadedJob_a3800b6f3d4e7434f503ebd7e4020befb}{{4.28}{40}{Public Member Functions}{section*.51}{}}
\newlabel{classThreadedJob_a9b36e17a083e9fd86c8e441892906ab5}{{4.28}{40}{Public Attributes}{section*.52}{}}
\@writefile{toc}{\contentsline {section}{\numberline {4.29}Timer Class Reference}{40}{section.4.29}}
\newlabel{classTimer}{{4.29}{40}{Timer Class Reference}{section.4.29}{}}
\newlabel{classTimer_a6f2ac15b429ebb8849d959d555ab2a41}{{4.29}{40}{Public Member Functions}{section*.53}{}}
\newlabel{classTimer_a9020542d73357a4eef512eefaf57524b}{{4.29}{40}{Public Member Functions}{section*.53}{}}
\newlabel{classTimer_ae08fd592f2d69fdfdc8a9f466efa6808}{{4.29}{40}{Public Member Functions}{section*.53}{}}
\newlabel{classTimer_a28fa45dfea4f4e9f4d9d2b1bca0495a0}{{4.29}{40}{Static Public Member Functions}{section*.54}{}}
\@writefile{toc}{\contentsline {subsection}{\numberline {4.29.1}Detailed Description}{40}{subsection.4.29.1}}
\@writefile{toc}{\contentsline {subsection}{\numberline {4.29.2}Member Function Documentation}{41}{subsection.4.29.2}}
\@writefile{toc}{\contentsline {subsubsection}{\numberline {4.29.2.1}is\discretionary {-}{}{}Timeout}{41}{subsubsection.4.29.2.1}}
\newlabel{classTimer_a474e92b2f291c20912b1d43a0e17c71a}{{4.29.2.1}{41}{is\-Timeout}{subsubsection.4.29.2.1}{}}
\@writefile{toc}{\contentsline {section}{\numberline {4.30}U\discretionary {-}{}{}I Class Reference}{41}{section.4.30}}
\newlabel{classUI}{{4.30}{41}{U\-I Class Reference}{section.4.30}{}}
\@writefile{toc}{\contentsline {section}{\numberline {4.31}Window\discretionary {-}{}{}:\discretionary {-}{}{}:Ui Struct Reference}{41}{section.4.31}}
\newlabel{structWindow_1_1Ui}{{4.31}{41}{Window\-:\-:Ui Struct Reference}{section.4.31}{}}
\newlabel{structWindow_1_1Ui_af38a66c8f6a7ca6e8db0df16980a36a3}{{4.31}{41}{Public Attributes}{section*.55}{}}
\newlabel{structWindow_1_1Ui_a29867b91b8aba05bba7cd8aab8ced6c4}{{4.31}{41}{Public Attributes}{section*.55}{}}
\newlabel{structWindow_1_1Ui_a793401a55acda9d9224e9b5b88a04df2}{{4.31}{41}{Public Attributes}{section*.55}{}}
\newlabel{structWindow_1_1Ui_a9be5db39be1ee00d93d29d35336ed154}{{4.31}{41}{Public Attributes}{section*.55}{}}
\newlabel{structWindow_1_1Ui_ac1cfa0f96ed9159416d10c3abd936563}{{4.31}{41}{Public Attributes}{section*.55}{}}
\newlabel{structWindow_1_1Ui_a8cc2abac35895dfeff6e032a9d7668c2}{{4.31}{41}{Public Attributes}{section*.55}{}}
\newlabel{structWindow_1_1Ui_a724ee52a617d0d335f29dce57cbd3d46}{{4.31}{41}{Public Attributes}{section*.55}{}}
\newlabel{structWindow_1_1Ui_a234a1d1946534d86e0bb9dfc7d2f6bf2}{{4.31}{41}{Public Attributes}{section*.55}{}}
\newlabel{structWindow_1_1Ui_a015255a09991b12b71c7e86ab1a212b6}{{4.31}{41}{Public Attributes}{section*.55}{}}
\newlabel{structWindow_1_1Ui_a5199dd51dc1e444a6fdc283abb842f5b}{{4.31}{41}{Public Attributes}{section*.55}{}}
\newlabel{structWindow_1_1Ui_a8e754d2a206ddcc05ccc314dfb9c1c24}{{4.31}{41}{Public Attributes}{section*.55}{}}
\newlabel{structWindow_1_1Ui_ac3b71324c05e04709bae8eba916329d5}{{4.31}{41}{Public Attributes}{section*.55}{}}
\@writefile{toc}{\contentsline {section}{\numberline {4.32}vector3 Class Reference}{41}{section.4.32}}
\newlabel{classvector3}{{4.32}{41}{vector3 Class Reference}{section.4.32}{}}
\newlabel{classvector3_a724dfeba47523d35c2f3fe466efe6521}{{4.32}{42}{Public Member Functions}{section*.56}{}}
\newlabel{classvector3_a939d711e351786e43ae2dafaf388751b}{{4.32}{42}{Public Member Functions}{section*.56}{}}
\newlabel{classvector3_af96cef2d9c378297ea243c2a4300a781}{{4.32}{42}{Public Member Functions}{section*.56}{}}
\@writefile{toc}{\contentsline {subsection}{\numberline {4.32.1}Detailed Description}{42}{subsection.4.32.1}}
\@writefile{toc}{\contentsline {subsection}{\numberline {4.32.2}Constructor \& Destructor Documentation}{42}{subsection.4.32.2}}
\@writefile{toc}{\contentsline {subsubsection}{\numberline {4.32.2.1}vector3}{42}{subsubsection.4.32.2.1}}
\newlabel{classvector3_a30bb6b715d488445faed27cdc77e5392}{{4.32.2.1}{42}{vector3}{subsubsection.4.32.2.1}{}}
\gdef \PWST@lxii{1}
\gdef \PWST@lxiii{1}
\@writefile{toc}{\contentsline {subsection}{\numberline {4.32.3}Member Function Documentation}{43}{subsection.4.32.3}}
\@writefile{toc}{\contentsline {subsubsection}{\numberline {4.32.3.1}mag}{43}{subsubsection.4.32.3.1}}
\newlabel{classvector3_a4a8034a539445b42d77a8c064167db3a}{{4.32.3.1}{43}{mag}{subsubsection.4.32.3.1}{}}
\@writefile{toc}{\contentsline {subsubsection}{\numberline {4.32.3.2}magsq}{43}{subsubsection.4.32.3.2}}
\newlabel{classvector3_ac693469b0357e5b5a32fc3c642941ff0}{{4.32.3.2}{43}{magsq}{subsubsection.4.32.3.2}{}}
\@writefile{toc}{\contentsline {subsubsection}{\numberline {4.32.3.3}normalize}{43}{subsubsection.4.32.3.3}}
\newlabel{classvector3_ad066c7968db61c84225cee13f082a642}{{4.32.3.3}{43}{normalize}{subsubsection.4.32.3.3}{}}
\@writefile{toc}{\contentsline {subsubsection}{\numberline {4.32.3.4}normalized}{43}{subsubsection.4.32.3.4}}
\newlabel{classvector3_aec5898078585d3402dc33a894a75a085}{{4.32.3.4}{43}{normalized}{subsubsection.4.32.3.4}{}}
\@writefile{toc}{\contentsline {subsubsection}{\numberline {4.32.3.5}operator$\ast $=}{43}{subsubsection.4.32.3.5}}
\newlabel{classvector3_a93d47d68fd8864b2b703e0c8e624c167}{{4.32.3.5}{43}{operator$\ast $=}{subsubsection.4.32.3.5}{}}
\@writefile{toc}{\contentsline {subsubsection}{\numberline {4.32.3.6}operator$\ast $=}{43}{subsubsection.4.32.3.6}}
\newlabel{classvector3_a3904d77e556e8cddf01f80b370bfdbaa}{{4.32.3.6}{43}{operator$\ast $=}{subsubsection.4.32.3.6}{}}
\gdef \PWST@lxiv{1}
\gdef \PWST@lxv{1}
\gdef \PWST@lxvi{1}
\gdef \PWST@lxvii{1}
\@writefile{toc}{\contentsline {subsubsection}{\numberline {4.32.3.7}operator+}{44}{subsubsection.4.32.3.7}}
\newlabel{classvector3_a24be6ea3cd2d31b88e08d8fe3c5ff3ab}{{4.32.3.7}{44}{operator+}{subsubsection.4.32.3.7}{}}
\@writefile{toc}{\contentsline {subsubsection}{\numberline {4.32.3.8}operator+=}{44}{subsubsection.4.32.3.8}}
\newlabel{classvector3_a03b67b53d072fb36d2e0e05da325f931}{{4.32.3.8}{44}{operator+=}{subsubsection.4.32.3.8}{}}
\@writefile{toc}{\contentsline {subsubsection}{\numberline {4.32.3.9}operator-\/}{44}{subsubsection.4.32.3.9}}
\newlabel{classvector3_a31994e6752f31608f57f68badfcd83eb}{{4.32.3.9}{44}{operator-\/}{subsubsection.4.32.3.9}{}}
\@writefile{toc}{\contentsline {subsubsection}{\numberline {4.32.3.10}operator-\/=}{44}{subsubsection.4.32.3.10}}
\newlabel{classvector3_a32f763ba05d0ef448bffcdfff7153888}{{4.32.3.10}{44}{operator-\/=}{subsubsection.4.32.3.10}{}}
\@writefile{toc}{\contentsline {subsubsection}{\numberline {4.32.3.11}operator/}{44}{subsubsection.4.32.3.11}}
\newlabel{classvector3_a9645578b6fe564b5d5df849aed0f322d}{{4.32.3.11}{44}{operator/}{subsubsection.4.32.3.11}{}}
\@writefile{toc}{\contentsline {subsubsection}{\numberline {4.32.3.12}operator/=}{44}{subsubsection.4.32.3.12}}
\newlabel{classvector3_a8d8e15d3bece4b62d1eeed6b87cae87f}{{4.32.3.12}{44}{operator/=}{subsubsection.4.32.3.12}{}}
\gdef \PWST@lxviii{2}
\gdef \PWST@lxix{1}
\@writefile{toc}{\contentsline {subsubsection}{\numberline {4.32.3.13}operator$^\wedge $}{45}{subsubsection.4.32.3.13}}
\newlabel{classvector3_a13c88262f740625dffb6179d7e0f0da9}{{4.32.3.13}{45}{operator$^\wedge $}{subsubsection.4.32.3.13}{}}
\@writefile{toc}{\contentsline {subsubsection}{\numberline {4.32.3.14}print}{45}{subsubsection.4.32.3.14}}
\newlabel{classvector3_ababcd4a0be31fc94cb24ed95c0a8c944}{{4.32.3.14}{45}{print}{subsubsection.4.32.3.14}{}}
\@writefile{toc}{\contentsline {section}{\numberline {4.33}Window Class Reference}{45}{section.4.33}}
\newlabel{classWindow}{{4.33}{45}{Window Class Reference}{section.4.33}{}}
\newlabel{classWindow_a00b12af0964bd34fdace514fb6341a8e}{{4.33}{45}{Public Member Functions}{section*.59}{}}
\newlabel{classWindow_a3b620e75ae1f2d07bb9f77fd99f9540b}{{4.33}{45}{Public Member Functions}{section*.59}{}}
\newlabel{classWindow_aa57a4ab1d706cf23028350fddaa6c03f}{{4.33}{45}{Public Member Functions}{section*.59}{}}
\newlabel{classWindow_a964f278845bd12253c4f5234ee8c70f1}{{4.33}{45}{Public Member Functions}{section*.59}{}}
\newlabel{classWindow_afd5dbb3b60cfa944b660cca3d55cdfb2}{{4.33}{45}{Public Member Functions}{section*.59}{}}
\newlabel{classWindow_aab296d65c3582676644cf109ce504fc0}{{4.33}{45}{Public Member Functions}{section*.59}{}}
\newlabel{classWindow_ae9556b0b08394b65b065bafc06334a83}{{4.33}{45}{Public Member Functions}{section*.59}{}}
\newlabel{classWindow_a20fc213bad321cd2b28467e2d2b55c52}{{4.33}{45}{Public Member Functions}{section*.59}{}}
\newlabel{classWindow_aa0bd5cbdb984ad3ec8e69a626485b3d3}{{4.33}{45}{Public Member Functions}{section*.59}{}}
\newlabel{classWindow_a3806e5d1a30845f535053dd68d304cb7}{{4.33}{45}{Public Member Functions}{section*.59}{}}
\newlabel{classWindow_a404a3306646a9ab4e299f6d8855c3612}{{4.33}{45}{Public Member Functions}{section*.59}{}}
\newlabel{classWindow_a32f383196da9020e35e4c6edcc259569}{{4.33}{45}{Public Member Functions}{section*.59}{}}
\newlabel{classWindow_a05cd80720c6b5eab18fed719499c406e}{{4.33}{45}{Public Member Functions}{section*.59}{}}
\newlabel{classWindow_afc94fc58d08bdfc207c9f2401cf21c33}{{4.33}{45}{Public Member Functions}{section*.59}{}}
\newlabel{classWindow_a5446bb243578c2a4822831c270be10aa}{{4.33}{45}{Public Member Functions}{section*.59}{}}
\newlabel{classWindow_a15082f01a0c74dba08c30fa26aa2effd}{{4.33}{45}{Public Member Functions}{section*.59}{}}
\newlabel{classWindow_a22b8779b6d9c773a16800ea159361707}{{4.33}{45}{Public Member Functions}{section*.59}{}}
\newlabel{classWindow_a58abaf1f2fc0c11227b1944690e9b8e4}{{4.33}{46}{Static Public Member Functions}{section*.60}{}}
\newlabel{classWindow_ab9f45f2f5b5ba6013a488a64fbd91bd5}{{4.33}{46}{Public Attributes}{section*.61}{}}
\newlabel{classWindow_ae0e66d230731e4c29512f822efb14ced}{{4.33}{46}{Public Attributes}{section*.61}{}}
\newlabel{classWindow_a5872e96eb56f78411ab7f5e6751060ff}{{4.33}{46}{Public Attributes}{section*.61}{}}
\newlabel{classWindow_a6f731abf837536f77df6700d0ad3f14c}{{4.33}{46}{Public Attributes}{section*.61}{}}
\newlabel{classWindow_afdb96f3e94168ab7c78db01353dc2587}{{4.33}{46}{Public Attributes}{section*.61}{}}
\newlabel{classWindow_a528089ee3c684eacf0d639632cdc1466}{{4.33}{46}{Public Attributes}{section*.61}{}}
\newlabel{classWindow_a94c52a0fe6bcf15dbf91dfe16b3b17da}{{4.33}{46}{Public Attributes}{section*.61}{}}
\newlabel{classWindow_a690739a744e52b6cc68079c87b159b25}{{4.33}{46}{Public Attributes}{section*.61}{}}
\newlabel{classWindow_a948f491f8b0cff0a43b85476d9b889e3}{{4.33}{46}{Public Attributes}{section*.61}{}}
\newlabel{classWindow_a2cda02e0abdea6c10d0eb79a11777809}{{4.33}{46}{Public Attributes}{section*.61}{}}
\newlabel{classWindow_a927f6449cd5aa5d169efe88c525f17f4}{{4.33}{46}{Public Attributes}{section*.61}{}}
\newlabel{classWindow_a1ee903b65530248fe228b9415aa8fcd6}{{4.33}{46}{Public Attributes}{section*.61}{}}
\@writefile{toc}{\contentsline {section}{\numberline {4.34}Worker\discretionary {-}{}{}Thread Class Reference}{46}{section.4.34}}
\newlabel{classWorkerThread}{{4.34}{46}{Worker\-Thread Class Reference}{section.4.34}{}}
\newlabel{classWorkerThread_ab5c034bc4a15f5af6dfdc472d18c1717}{{4.34}{46}{Public Member Functions}{section*.62}{}}
\newlabel{classWorkerThread_a3109c9b3372bde17eb064a9ee25f8ced}{{4.34}{46}{Public Member Functions}{section*.62}{}}
\newlabel{classWorkerThread_a6c854b75aa30b52f7a68101be500cb45}{{4.34}{46}{Public Member Functions}{section*.62}{}}
\newlabel{classWorkerThread_a7d7a81c60f9630d240fa802826fb66c3}{{4.34}{46}{Static Public Member Functions}{section*.63}{}}
